RSiena.knit
…
# put the nets in an array
net_soc_array <- array(data = c(wave1, wave2), dim = c(dim(wave1), 2))
dim(net_soc_array)

## [1] 101 101   2

Here we say that this array is our dependent variable. In RSiena we
have to define dep variable at the network level, at the ego level.

net <- sienaDependent(net_soc_array)
df_egol <- do.call(rbind.data.frame, test$data$demographics)
df_egol

## # A tibble: 101 × 21
##    Naam             Universiteit.22 `Email-adres.22` Functie.22 `Google Scholar id.22` discipline.22
##  * <chr>            <chr>           <chr>            <chr>      <chr>                  <chr>        
##  1 Ana Macanovic    UU              a.macanovic@uu.… PhD Stude… s5D67kwAAAAJ           sociology    
##  2 Ronald Batenburg RU              ronald.batenbur… Hoogleraar UK7nVSEAAAAJ           sociology    
##  3 Katia Begall     RU              katia.begall@ru… Universit… e7zfTqMAAAAJ           sociology    
##  4 Hidde Bekhuis    RU              hidde.bekhuis@r… Associate… Q4saWX8AAAAJ           sociology    
##  5 Lonneke van den… RU              lonneke.vandenb… Postdoc    vzBNQ1kAAAAJ           sociology    
##  6 Lieselotte Blom… RU              lieselotte.blom… Universit… RG54uasAAAAJ           sociology    
##  7 Rob Eisinga      RU              rob.eisinga@ru.… Universit… GDHdsXAAAAAJ           sociology    
##  8 Maurice Gesthui… RU              maurice.gesthui… Universit… n6hiblQAAAAJ           sociology    
##  9 Nella Geurts     RU              nella.geurts@ru… Postdoc    VCTvbTkAAAAJ           sociology    
## 10 Saskia Glas      RU              saskia.glas@ru.… Universit… ZMc0j2YAAAAJ           sociology    
## # ℹ 91 more rows
## # ℹ 15 more variables: Specialisatie.22 <chr>, year.22 <dbl>, Universiteit1.22 <chr>,
## #   Universiteit2.22 <chr>, Universiteit.24 <chr>, `Email-adres.24` <chr>, Functie.24 <chr>,
## #   `Google Scholar id.24` <chr>, discipline.24 <chr>, Specialisatie.24 <chr>, year.24 <dbl>,
## #   Universiteit1.24 <chr>, Universiteit2.24 <chr>, no_oa_id <dbl>, au_id <chr>
…
