Week_3.knit
…
TvdM_works <- oa_fetch(entity = "works", author.id = TvdM$id[1])
MG_works <- oa_fetch(entity = "works", author.id = MG$id)
MS_works <- oa_fetch(entity = "works", author.id = MS$id)
JT_works <- oa_fetch(entity = "works", author.id = Fetch_Jochem$id)

TvdM_works

## # A tibble: 150 × 38
##    id    title display_name author ab    publication_date so    so_id host_organization issn_l url  
##    <chr> <chr> <chr>        <list> <chr> <chr>            <chr> <chr> <chr>             <chr>  <chr>
##  1 http… Ethn… Ethnic Dive… <df>   Rece… 2014-06-27       Annu… http… Annual Reviews    0360-… http…
##  2 http… Hand… Handbook on… <df>   Poli… 2017-01-27       Edwa… http… Edward Elgar Pub… <NA>   http…
##  3 http… Poli… Political T… <df>   This… 2016-03-30       Poli… http… SAGE Publishing   0032-… http…
##  4 http… In E… In Europe w… <df>   This… 2013-07-04       Euro… http… SAGE Publishing   1465-… http…
##  5 http… Macr… Macroeconom… <df>   Abst… 2015-10-18       Euro… http… Wiley             0304-… http…
##  6 http… Poli… Political T… <df>   For … 2017-01-25       Oxfo… http… <NA>              <NA>   http…
##  7 http… In w… In what we … <df>   A ba… 2010-09-01       Inte… http… SAGE Publishing   0020-… http…
##  8 http… Ethn… Ethnic Dive… <df>   This… 2008-09-01       Scan… http… Wiley             0080-… http…
##  9 http… The … The impact … <df>   Up t… 2009-07-01       Acta… http… Palgrave Macmill… 0001-… http…
## 10 http… Ethn… Ethnic Dive… <df>   This… 2009-04-21       Scan… http… Wiley             0080-… http…
## # ℹ 140 more rows
## # ℹ 27 more variables: pdf_url <chr>, license <chr>, version <chr>, first_page <chr>,
## #   last_page <chr>, volume <chr>, issue <chr>, is_oa <lgl>, is_oa_anywhere <lgl>, oa_status <chr>,
## #   oa_url <chr>, any_repository_has_fulltext <lgl>, language <chr>, grants <list>,
## #   cited_by_count <int>, counts_by_year <list>, publication_year <int>, cited_by_api_url <chr>,
## #   ids <list>, doi <chr>, type <chr>, referenced_works <list>, related_works <list>,
## #   is_paratext <lgl>, is_retracted <lgl>, concepts <list>, topics <list>

MG_works

## # A tibble: 115 × 38
##    id    title display_name author ab    publication_date so    so_id host_organization issn_l url  
##    <chr> <chr> <chr>        <list> <chr> <chr>            <chr> <chr> <chr>             <chr>  <chr>
##  1 http… Ethn… Ethnic Dive… <df>   This… 2008-09-01       Scan… http… Wiley             0080-… http…
##  2 http… The … The impact … <df>   Up t… 2009-07-01       Acta… http… Palgrave Macmill… 0001-… http…
##  3 http… Ethn… Ethnic Dive… <df>   This… 2009-04-21       Scan… http… Wiley             0080-… http…
##  4 http… Cont… Context Mat… <df>   This… 2010-02-21       Euro… http… Oxford Universit… 0266-… http…
##  5 http… Yout… Youth Labou… <df>   Youn… 2013-08-05       Euro… http… Routledge         1461-… http…
##  6 http… Educ… Education a… <df>   Jour… 2008-03-17       Euro… http… Oxford Universit… 0266-… http…
##  7 http… Ineq… Inequality … <df>   This… 2016-04-06       Euro… http… Oxford Universit… 0266-… http…
##  8 http… Expl… Explaining … <df>   In t… 2011-03-16       Soci… http… Elsevier BV       0049-… http…
##  9 http… Well… Well begun,… <df>   This… 2006-09-01       Work… http… SAGE Publishing   0950-… http…
## 10 http… Educ… Educational… <df>   Prio… 2010-12-22       Nonp… http… SAGE Publishing   0899-… http…
## # ℹ 105 more rows
## # ℹ 27 more variables: pdf_url <chr>, license <chr>, version <chr>, first_page <chr>,
## #   last_page <chr>, volume <chr>, issue <chr>, is_oa <lgl>, is_oa_anywhere <lgl>, oa_status <chr>,
## #   oa_url <chr>, any_repository_has_fulltext <lgl>, language <chr>, grants <list>,
## #   cited_by_count <int>, counts_by_year <list>, publication_year <int>, cited_by_api_url <chr>,
## #   ids <list>, doi <chr>, type <chr>, referenced_works <list>, related_works <list>,
## #   is_paratext <lgl>, is_retracted <lgl>, concepts <list>, topics <list>

MS_works

## # A tibble: 29 × 38
##    id    title display_name author ab    publication_date so    so_id host_organization issn_l url  
##    <chr> <chr> <chr>        <list> <chr> <chr>            <chr> <chr> <chr>             <chr>  <chr>
##  1 http… Anti… Anti-Muslim… <df>   Jour… 2010-07-25       Euro… http… Oxford Universit… 0266-… http…
##  2 http… Inte… Intergroup … <df>   Inte… 2023-09-01       Amer… http… American Psychol… 0003-… http…
##  3 http… Neig… Neighbourho… <df>   Supp… 2017-01-13       Euro… http… Oxford Universit… 0266-… http…
##  4 http… Expl… Explaining … <df>   In t… 2011-03-16       Soci… http… Elsevier BV       0049-… http…
##  5 http… Comp… Comparing l… <df>   <NA>  2011-03-18       Qual… http… Springer Science… 0033-… http…
##  6 http… Has … Has the ter… <df>   In r… 2022-03-25       Acta… http… SAGE Publishing   0001-… http…
##  7 http… Why … Why lower e… <df>   We a… 2016-11-29       Acta… http… Palgrave Macmill… 0001-… http…
##  8 http… Ethn… Ethnic dive… <df>   <NA>  2009-01-01       <NA>  <NA>  <NA>              <NA>   http…
##  9 http… Expo… Exposure to… <df>   As a… 2021-02-02       PLoS… http… Public Library o… 1932-… http…
## 10 http… Does… Does relati… <df>   We t… 2015-07-01       Soci… http… Elsevier BV       0049-… http…
## # ℹ 19 more rows
## # ℹ 27 more variables: pdf_url <chr>, license <chr>, version <chr>, first_page <chr>,
## #   last_page <chr>, volume <chr>, issue <chr>, is_oa <lgl>, is_oa_anywhere <lgl>, oa_status <chr>,
## #   oa_url <chr>, any_repository_has_fulltext <lgl>, language <chr>, grants <lgl>,
## #   cited_by_count <int>, counts_by_year <list>, publication_year <int>, cited_by_api_url <chr>,
## #   ids <list>, doi <chr>, type <chr>, referenced_works <list>, related_works <list>,
## #   is_paratext <lgl>, is_retracted <lgl>, concepts <list>, topics <list>

JT_works

## # A tibble: 90 × 38
##    id    title display_name author ab    publication_date so    so_id host_organization issn_l url  
##    <chr> <chr> <chr>        <list> <chr> <chr>            <chr> <chr> <chr>             <chr>  <chr>
##  1 http… Ethn… Ethnic Dive… <df>   Rece… 2014-06-27       Annu… http… Annual Reviews    0360-… http…
##  2 http… Anti… Anti-Muslim… <df>   Jour… 2010-07-25       Euro… http… Oxford Universit… 0266-… http…
##  3 http… The … The impact … <df>   Up t… 2009-07-01       Acta… http… Palgrave Macmill… 0001-… http…
##  4 http… Who … Who is bull… <df>   This… 2013-01-01       Soci… http… Elsevier BV       0378-… http…
##  5 http… Neig… Neighbourho… <df>   Supp… 2017-01-13       Euro… http… Oxford Universit… 0266-… http…
##  6 http… Kudo… Kudos make … <df>   Stra… 2023-01-01       Soci… http… Elsevier BV       0378-… http…
##  7 http… Simi… Similarity … <df>   Indi… 2024-01-01       Soci… http… Elsevier BV       0378-… http…
##  8 http… Ethn… Ethnic Comp… <df>   Jour… 2007-11-25       Euro… http… Oxford Universit… 0266-… http…
##  9 http… Educ… Education a… <df>   Abst… 2012-04-19       Jour… http… Taylor & Francis  1369-… http…
## 10 http… Co-o… Co-occurren… <df>   Alth… 2019-12-01       Chil… http… Elsevier BV       0145-… http…
## # ℹ 80 more rows
## # ℹ 27 more variables: pdf_url <chr>, license <chr>, version <chr>, first_page <chr>,
## #   last_page <chr>, volume <chr>, issue <chr>, is_oa <lgl>, is_oa_anywhere <lgl>, oa_status <chr>,
## #   oa_url <chr>, any_repository_has_fulltext <lgl>, language <chr>, grants <list>,
## #   cited_by_count <int>, counts_by_year <list>, publication_year <int>, cited_by_api_url <chr>,
## #   ids <list>, doi <chr>, type <chr>, referenced_works <list>, related_works <list>,
## #   is_paratext <lgl>, is_retracted <lgl>, concepts <list>, topics <list>
…
